hostname,ip,status
﻿AREA OFFICE TASIKMALAYA,10.40.2.1,success mamang
CIANJUR,10.105.2.1,success mamang
GARUT,10.56.2.1,success mamang
SUMEDANG,10.74.2.1,success mamang
PURWAKARTA,10.87.2.1,success mamang
JATIBARANG,10.90.2.1,success mamang
AREA OFFICE PONTIANAK,10.12.2.1,success mamang
AREA OFFICE SUKABUMI,10.41.2.1,success mamang
AREA OFFICE KARAWANG,10.29.2.1,success mamang
AREA OFFICE BANDUNG,10.123.2.1,success mamang
AREA OFFICE BEKASI,10.121.2.1,success mamang
AREA OFFICE BOGOR,10.99.2.1,success mamang
AREA OFFICE CIKARANG,10.170.2.1,success mamang
AREA OFFICE JAKARTA,10.220.2.2,error coy
AREA OFFICE DEPOK,10.66.2.1,success mamang
AREA OFFICE SERANG,10.53.2.1,success mamang
AREA OFFICE CIKUPA,10.205.2.1,success mamang
AREA OFFICE BINTARO,10.65.2.1,success mamang
AREA OFFICE JAMBI,10.37.2.1,success mamang
MUARA BUNGO,10.73.2.1,error coy
AREA OFFICE LAMPUNG,10.67.2.1,success mamang
AREA OFFICE PEKANBARU,10.4.2.1,success mamang
AREA OFFICE PALEMBANG,10.3.2.1,success mamang
AREA OFFICE BANGKA,10.36.2.1,success mamang
PRABUMULIH,10.86.2.1,success mamang
AREA OFFICE PADANG,10.5.2.1,success mamang
AREA OFFICE BENGKULU,10.13.2.1,success mamang
AREA OFFICE BATAM,10.38.2.1,success mamang
KAYU AGUNG,10.107.2.1,success mamang
AREA OFFICE MANADO,10.22.2.1,success mamang
AREA OFFICE MAKASSAR,10.10.2.1,success mamang
POLEWALI MANDAR,10.164.2.1,success mamang
AREA OFFICE PALU,10.52.2.1,success mamang
PALOPO,10.48.2.1,success mamang
BONE,10.154.2.1,success mamang
LUWUK,10.63.2.1,success mamang
AREA OFFICE POSO,10.182.2.1,success mamang
AREA OFFICE JAYAPURA,10.130.2.1,success mamang
SORONG,10.160.2.1,success mamang
AREA OFFICE YOGYAKARTA,10.8.2.1,success mamang
AREA OFFICE SOLO,10.7.2.1,success mamang
KUDUS,10.61.2.1,success mamang
SALATIGA,10.138.2.1,success mamang
AREA OFFICE TEGAL,10.49.2.1,success mamang
PEKALONGAN,10.69.2.1,success mamang
BIMA,10.127.2.1,success mamang
AREA OFFICE JEMBER,10.23.2.1,success mamang
JOMBANG,10.172.2.1,success mamang
AREA OFFICE LOMBOK,10.210.2.1,error coy
AREA OFFICE MALANG,10.20.2.1,success mamang
PASURUAN,10.54.2.1,success mamang
TUBAN,10.43.2.1,success mamang
KEDIRI,10.9.2.1,success mamang
MOJOKERTO,10.42.2.1,success mamang
MADURA,10.109.2.1,success mamang
AREA OFFICE TARAKAN,10.60.2.1,success mamang
AREA OFFICE SAMARINDA,10.39.2.1,success mamang
AREA OFFICE BANJARMASIN,10.11.2.1,success mamang
TANJUNG,10.137.2.1,success mamang
